@startuml
Thread <|-- watchdog
Tkinter.Frame <|-- Studio
gui *-- Studio
gestorzmq o-- Studio
panelplayer *-- Studio
myzmq <|-- servidor
Player *-- panelplayer
videowall *-- Player
gestorzmq o-- videowall
gestorzmq o-- Player
gestorVideos *-- panelplayer
Thread *-- panelplayer
gui o-- panelplayer
gui o-- gestorzmq
myzmq <|-- myzmqVideo
zmq.socket <|-- myzmq
mensaje.state <|-- myzmq
mensaje.command <|-- myzmq
Thread <|-- mylatido
Thread <|-- gestorVideos
servidor *-- gestorzmq
gestorzmq o-- mylatido
gestorzmq o-- gestorvw
moviepy.editor.VideoFileClip *-- VideoClip
VideoClip *-- gestorVideos
Tkinter.Frame <|-- gestorvw
Tkinter.Frame <|-- Inforpi
Tkinter.Frame <|-- infovw
gui o-- gestorvw
Tkinter.Tk *-- gui
gui o-- Inforpi
gui o-- infovw
gestorzmq o-- Inforpi
gestorzmq o-- infovw

class infovw{
    aplicarValores()
    actualizarCoords()
    actualizarRot()
    actualizarEscala()
}
class Inforpi{
    addEquipo()
    chgEstado()
    chgNombre()
    destroyInfoServer()
    aplicarAlias()
}
class gui{
    ventana : Tkinter.Tk
    crearBoton()
    crearEtiqueta()
    crearEtiquetaVar()
    crearFrame()
    crearLabelFrame()
    crearLista()
    crearImagenRAW()
    crearImagen()
    crearMarcoImg()
    crearIMGYTxt()
    crearEntrada()
    crearRadioBot()
    crearCuaderno()
    crearCanvas()
    crearImginfo()
    crearProgreso()
    loop()
}
class gestorvw{
    crearVideowall()
    suprVideowall()
    crearRectangulo()
    eliminarRectangulo()
    click()
    arrastrar()
    rotar()
    scroll()
    marcarCoords()
    actualizarMedidas()
    actualizarLista()
    seleccionVW()
    ...()
}
class VideoClip{
    name : string
    timeStart : int
}
class watchdog {
  void vigilancia()
}
class gestorVideos{
    refresco()
    len()
}
class mylatido{
    recibirIP()
}
class videowall{
    enVW : Bool
    addServidor()
    envio_cmd()
    latidoTime()
    path()
    establecer_cmd()
    establecer_path()
    establecer_audio()
    obtener_estado()
}
class Studio{
    Atributos : dics
    seleccionPlayer()
    seleccion()
    cofigNewPlayer()
    destroyServer()
    click2dario()
    getId()
    chgAlias()
    chgVideos()
    seleccionVideo()
    actualizarLista()
    selectorServidor()
    chgEstado()
}
class servidor{
    dirIP : string
    enVW : Bool
    path{} : strings
    solicitar_paths()
    establecer_cmd()
    establecer_audio()
    establecer_path()
    obtener_estado()
}
class Player{
    videos{} : string
    chgmode()
    set_audio()
    set_path()
    start()
    solicitar_paths()
    obtener_estado()
}
class panelplayer{
    playing_thread()
    botonPlay()
    path_play_cmd()
    play_cmd()
    minimize()
    chgmode()
    menuEvents()
    restablecer()
    actualizarTitulo()
    borrarALL()
    setAll()
    addVideo()
    delVideo()
    scroll()
    click()
}
class myzmqVideo{
    connect()
    send_video()
}
class myzmq{
    initServer()
    connect()
    envio_cmd()
    recibir_state()
    disconnect()
}
class gestorzmq{
    dicServidores{} : servidor
    alias{} : string
    addServidor()
    crearPlayerServidor()
    servidorIncluido()
    addVideos()
    LatidoServidor()
    Watchdog()
    cambiarAlias()
}
@enduml