@startuml

gestorMP o-- vlc_object
gestorMP o-- conn_zmq

conn_zmq *-- zmq.socket_t
conn_zmq  *-- Command
conn_zmq  *-- State
conn_zmq <|-- latidos_zmq
gestorMP .. Command
gestorMP .. State
latidos_zmq o-- vlc_object
latidos_zmq *-- Latido
vlc_object *-- lst_medias
conn_zmq <|-- zmqVideo

class gestorMP {
+ gestorMP()
+ gestion_recv_cmd()
+ preparar_envio_paths()
+ cargar_video()
}

class conn_zmq{
+ static context_t
+ connected
+ conn_zmq()
+ bind()
+ connect()
+ recv_command()
+ send_command()
+ send_state()
}

class latidos_zmq {
# wk_thread
# ip_broker
# my_ip
# static *thread()
+ latidos_zmq()
+ send_latidos_thread()
+ *send_latidos()
+ send_state()
}

class lst_medias{
# dir
+ nombre
+ path
+ lst_medias()
+ cargarlista()
}
class vlc_object{
- libvlc_instance_t *inst
- libvlc_media_player_t *mp
- libvlc_media_t *m
- [] vlc_argv
..más..
--
+ new_engine()
+ new_vlc_mp()
+ release_vlc_m()
+ Play()
+ Stop()
..más..
}

class zmqVideo {
# wk_thread
# static *thread()
+ zmqVideo()
+ recv_videos_thread()
+ recv_videos()
+ recv_data()
}
@enduml